%YAML 1.1
%TAG !u! tag:unity3d.com,2011:
--- !u!1045 &1
EditorBuildSettings:
  m_ObjectHideFlags: 0
  serializedVersion: 2
  m_Scenes:
  - enabled: 1
    path: Assets/_Scenes/StartScreen.unity
    guid: a9f757282b01a77409cc1a13f8ff7822
  - enabled: 1
    path: Assets/_Scenes/SampleScene.unity
    guid: 9fc0d4010bbf28b4594072e72b8655ab
  - enabled: 1
    path: Assets/_Scenes/GameOver.unity
    guid: e4d1babd9f036dd4e8b34aa5bc709dc5
  m_configObjects: {}
